Appendices Consider: 286

java.sql.SQLException: 

Cannot insert the value NULL into column 'ap_jl_js_title', table 'ilex.dbo.ap_job_level_summary'; column does not allow nulls. INSERT fails. 

execute ap_job_level_insert_01 16541, '07/27/2007', 'In Work - Overdue', 180, 'Appendix 1 - Next Gen POS', 'IBM Corporation', null, null, null, 0.0, 0.0, 0.0, 0.0, 0.0, 0.0, 0.0, 'Kuhr', 'Swart', 'N', 'No', 'N', 'N', 'N', null, 'N', '32907', '1', null, null
